boatName;idBoat;boatType
Mariami KERDIKASHVILI;1;Canoe
Katie REID;2;Canoe
Laura RUIZ;3;Canoe
Liudmyla BABAK;4;Canoe
Gabriele CEREPOKAITE;5;Canoe
Hana MIKECIOVA;6;Canoe
Vanesa TOT;7;Canoe
Denisa RAHOVA;8;Canoe
Stefanica URSU;9;Canoe
Annika LOSKE;10;Canoe
Tijana ARSIC;11;Canoe
Maria CORBERA;12;Canoe
Fernando Dayan JORGE ENRIQUEZ;13;Canoe
Balazs ADOLF;14;Canoe
Serguey TORRES MADRIGAL;15;Canoe
Ivan DMITRIEV;16;Canoe
Nicholas FODOR;17;Canoe
David FEKETE;18;Canoe
Peter KIZEK;19;Canoe
Mateusz KAMINSKI ;20;Canoe
Maria MAILLIARD;21;Kayak
Volha KLIMAVA;22;Kayak
Yarisleidis CIRILO DUBOYS;23;Kayak
Zsofia KISBAN;24;Kayak
Dora HORANYI;25;Kayak
Olena TSYHANKOVA;26;Kayak
Katherin NUEVO SEGURA;27;Kayak
Martina MALIKOVA;28;Kayak
Katarzyna SZPERKIEWICZ;29;Kayak
Lydia SAMPSON;30;Canoe
Tomer MATZA;31;Kayak
Aleh YURENIA;32;Kayak
Jeremy HAKALA;33;Kayak
Steven HENRY;34;Kayak
Balint NOE;35;Kayak
Balint KOPASZ;36;Kayak
Fernando PIMENTA;37;Kayak
Thorbjorn RASK;38;Kayak
Nicolai WINTHER;39;Kayak
Artuur PETERS;40;Kayak
Agustin RODRIGUEZ;41;Kayak
Eivind VOLD;42;Kayak
Oleksandr ZARUBIN;43;Kayak
Nikolay CHERVOV;44;Kayak
Jon Amund VOLD;45;Kayak
Vitalii TSURKAN;46;Kayak
Pavel DAVIDEK;47;Kayak
Slawomir WITCZAK;48;Kayak
Wiktor ZARSKI;49;Kayak
Milan DORNER;50;Kayak
Ronan FOLEY;51;Kayak
Eetu KOLEHMAINEN;52;Kayak
Barry HAZENOOT;53;Kayak
Nathan HUMBERSTON;54;Kayak
Shalev DREY;55;Kayak
Linnea STENSILS;56;Kayak
Zsoka CSIKOS;57;Kayak
Cathrine RASK;58;Kayak
Elena MIRONCHENKO;59;Kayak
Eszter RENDESSY;60;Kayak
Kristina BEDEC;61;Kayak
Eliska BETLACHOVA;62;Kayak
Adela HAZOVA;63;Kayak
Johanna JOHANSSON;64;Kayak
Mia MEIZELES;65;Kayak
Jennifer EGAN;66;Kayak
Aya FERFAD;67;Kayak
Eleftheria KAMINARI;68;Kayak
Kolos CSIZMADIA;69;Kayak
Evgenii LUKANTSOV;70;Kayak
Roberts AKMENS;71;Kayak
Oleh KUKHARYK;72;Kayak
Jonathan DELOMBAERDE;73;Kayak
Ioannis ODYSSEOS;74;Kayak
Serkan KAKKAC;75;Kayak
Edgar TUTYAN;76;Kayak
Kevin SANTOS;77;Kayak
Pawel KACZMAREK;78;Kayak
Vid DEBELJAK;79;Kayak
Jakub ZAVREL;80;Kayak
Kaspar SULA;81;Kayak
Joona MAENTYNEN;82;Kayak
Stav MIZRAHI;83;Kayak
Nikola MALESKI;84;Kayak
Denislav TSVETANOV;85;Kayak
Matus JEDINAK;86;Kayak
Christos MATSAS;87;Kayak
Evgenii LUKANTSOV;88;Kayak
Badri KAVELASHVILI;89;Kayak
Joona MAENTYNEN;90;Kayak
Dzmitry TRATSIAKOU;91;Kayak
Harald IVARSEN;92;Kayak
Evgenii LUKANTSOV;93;Kayak
Vid DEBELJAK;94;Kayak
Arturas SEJA;95;Kayak
